{
"Objects":
[
	
	{
    "name": "testSpheres",
    "ID": -2474,
    "mesh": "testSpheres.fbx",
    "tag": "Untagged",
    "transform": {
        "e00": 1.0,
        "e01": 0.0,
        "e02": 0.0,
        "e03": 0.0,
        "e10": 0.0,
        "e11": 1.0,
        "e12": 0.0,
        "e13": 0.0,
        "e20": 0.0,
        "e21": 0.0,
        "e22": 1.0,
        "e23": 0.0,
        "e30": 0.0,
        "e31": 0.0,
        "e32": 0.0,
        "e33": 1.0
    },
    "parent": "",
    "lightType": "",
    "lightColor": "",
    "lightIntensity": "",
	"animationInfo": {
        "duration": 0.0,
        "mode": 0,
        "lookForward": false,
        "spline": {
            "points": []
        }
    }
},

	
	{
    "name": "msh_playerReference_xSection (1)",
    "ID": -1022,
    "mesh": "msh_playerReference_xSection.fbx",
    "tag": "Untagged",
    "transform": {
        "e00": 1.0,
        "e01": 0.0,
        "e02": 0.0,
        "e03": 1800.0,
        "e10": 0.0,
        "e11": 1.0,
        "e12": 0.0,
        "e13": 2000.0,
        "e20": 0.0,
        "e21": 0.0,
        "e22": 1.0,
        "e23": -1600.0,
        "e30": 0.0,
        "e31": 0.0,
        "e32": 0.0,
        "e33": 1.0
    },
    "parent": "",
    "lightType": "",
    "lightColor": "",
    "lightIntensity": "",
    "animationInfo": {
        "duration": 0.0,
        "mode": 0,
        "lookForward": false,
        "spline": {
            "points": []
        }
    }
},
{
    "name": "Curve",
    "ID": 9172,
    "mesh": "",
    "tag": "Untagged",
    "transform": {
        "e00": 1.0,
        "e01": 0.0,
        "e02": 0.0,
        "e03": 0.0,
        "e10": 0.0,
        "e11": 1.0,
        "e12": 0.0,
        "e13": 0.0,
        "e20": 0.0,
        "e21": 0.0,
        "e22": 1.0,
        "e23": 0.0,
        "e30": 0.0,
        "e31": 0.0,
        "e32": 0.0,
        "e33": 1.0
    },
    "parent": "",
    "lightType": "",
    "lightColor": "",
    "lightIntensity": "",
    "animationInfo": {
        "duration": 0.0,
        "mode": 0,
        "lookForward": false,
        "spline": {
            "points": []
        }
    }
},
{
    "name": "playerShip",
    "ID": 9112,
    "mesh": "",
    "tag": "Untagged",
    "transform": {
        "e00": -1.0,
        "e01": 0.0,
        "e02": 0.0,
        "e03": 0.0,
        "e10": 0.0,
        "e11": 1.0,
        "e12": 0.0,
        "e13": 0.0,
        "e20": 0.0,
        "e21": 0.0,
        "e22": -1.0,
        "e23": 0.0,
        "e30": 0.0,
        "e31": 0.0,
        "e32": 0.0,
        "e33": 1.0
    },
    "parent": "Curve",
    "lightType": "",
    "lightColor": "",
    "lightIntensity": "",
    "animationInfo": {
        "duration": 250.0,
        "mode": 0,
        "lookForward": true,
        "spline": {
            "points": [
                {
                    "x": 0.0,
                    "y": 0.0,
                    "z": 0.0
                },
                {
                    "x": 0.0,
                    "y": 0.0,
                    "z": 5.0
                },
                {
                    "x": 285.846435546875,
                    "y": 0.0,
                    "z": 47.40238952636719
                },
                {
                    "x": 312.6943359375,
                    "y": 0.0,
                    "z": 52.40238952636719
                },
                {
                    "x": 317.60986328125,
                    "y": 0.0,
                    "z": 53.31782913208008
                },
                {
                    "x": 1265.09375,
                    "y": 0.0,
                    "z": -19.447914123535158
                },
                {
                    "x": 1265.09375,
                    "y": 0.0,
                    "z": 67.40238952636719
                },
                {
                    "x": 1265.09375,
                    "y": 0.0,
                    "z": 309.1378173828125
                },
                {
                    "x": 911.461181640625,
                    "y": 461.4279479980469,
                    "z": 666.3427124023438
                },
                {
                    "x": 911.461181640625,
                    "y": 461.4279479980469,
                    "z": 671.3427124023438
                },
                {
                    "x": 911.461181640625,
                    "y": 461.4279479980469,
                    "z": 693.5110473632813
                },
                {
                    "x": 922.7493896484375,
                    "y": 927.0029907226563,
                    "z": 768.2509765625
                },
                {
                    "x": 714.3825073242188,
                    "y": 970.965576171875,
                    "z": 768.3837890625
                },
                {
                    "x": 564.8854370117188,
                    "y": 1002.5074462890625,
                    "z": 768.4790649414063
                },
                {
                    "x": 791.0077514648438,
                    "y": 970.965576171875,
                    "z": 1209.80419921875
                },
                {
                    "x": 791.0077514648438,
                    "y": 970.965576171875,
                    "z": 1214.80419921875
                },
                {
                    "x": 791.0077514648438,
                    "y": 970.965576171875,
                    "z": 1799.415283203125
                },
                {
                    "x": 1764.543701171875,
                    "y": 1831.27294921875,
                    "z": 1963.666259765625
                },
                {
                    "x": 1764.543701171875,
                    "y": 1831.27294921875,
                    "z": 1355.2103271484375
                },
                {
                    "x": 1764.543701171875,
                    "y": 1831.27294921875,
                    "z": 1350.2103271484375
                },
                {
                    "x": 1794.486083984375,
                    "y": 1994.97802734375,
                    "z": 326.04931640625
                },
                {
                    "x": 1794.486083984375,
                    "y": 1994.97802734375,
                    "z": 331.04931640625
                },
                {
                    "x": 1794.486083984375,
                    "y": 1994.97802734375,
                    "z": 336.04931640625
                },
                {
                    "x": 1588.88671875,
                    "y": 1994.97802734375,
                    "z": -2402.154541015625
                },
                {
                    "x": 1823.564453125,
                    "y": 1994.97802734375,
                    "z": -2397.154541015625
                },
                {
                    "x": 1828.5625,
                    "y": 1994.97802734375,
                    "z": -2397.048095703125
                },
                {
                    "x": 2818.96728515625,
                    "y": 1994.97802734375,
                    "z": -2145.703857421875
                },
                {
                    "x": 2823.966552734375,
                    "y": 1994.97802734375,
                    "z": -2751.0146484375
                },
                {
                    "x": 2825.939697265625,
                    "y": 1994.97802734375,
                    "z": -2989.92333984375
                },
                {
                    "x": 2928.273193359375,
                    "y": 1994.97802734375,
                    "z": -4141.283203125
                },
                {
                    "x": 2928.273193359375,
                    "y": 1994.97802734375,
                    "z": -4136.283203125
                }
            ]
        }
    }
},
{
    "name": "rocket",
    "ID": -96284,
    "mesh": "rocket.fbx",
    "tag": "Untagged",
    "transform": {
        "e00": 1.0,
        "e01": 0.0,
        "e02": 0.0,
        "e03": 0.0,
        "e10": 0.0,
        "e11": 1.0,
        "e12": 0.0,
        "e13": 0.0,
        "e20": 0.0,
        "e21": 0.0,
        "e22": 1.0,
        "e23": -0.026795320212841035,
        "e30": 0.0,
        "e31": 0.0,
        "e32": 0.0,
        "e33": 1.0
    },
    "parent": "playerShip",
    "lightType": "",
    "lightColor": "",
    "lightIntensity": "",
    "animationInfo": {
        "duration": 0.0,
        "mode": 0,
        "lookForward": false,
        "spline": {
            "points": []
        }
    }
},
{
    "name": "Bend_Section",
    "ID": 9124,
    "mesh": "",
    "tag": "Untagged",
    "transform": {
        "e00": 1.0,
        "e01": 0.0,
        "e02": 0.0,
        "e03": -3300.0,
        "e10": 0.0,
        "e11": 1.0,
        "e12": 0.0,
        "e13": -3100.0,
        "e20": 0.0,
        "e21": 0.0,
        "e22": 1.0,
        "e23": -7800.0,
        "e30": 0.0,
        "e31": 0.0,
        "e32": 0.0,
        "e33": 1.0
    },
    "parent": "",
    "lightType": "",
    "lightColor": "",
    "lightIntensity": "",
    "animationInfo": {
        "duration": 0.0,
        "mode": 0,
        "lookForward": false,
        "spline": {
            "points": []
        }
    }
},
{
    "name": "msh_module_linearBend",
    "ID": -992,
    "mesh": "msh_module_linearBend.fbx",
    "tag": "Untagged",
    "transform": {
        "e00": 1.0,
        "e01": 0.0,
        "e02": 0.0,
        "e03": 5200.0,
        "e10": 0.0,
        "e11": 1.0,
        "e12": 0.0,
        "e13": 0.0,
        "e20": 0.0,
        "e21": 0.0,
        "e22": 1.0,
        "e23": 0.0,
        "e30": 0.0,
        "e31": 0.0,
        "e32": 0.0,
        "e33": 1.0
    },
    "parent": "",
    "lightType": "",
    "lightColor": "",
    "lightIntensity": "",
    "animationInfo": {
        "duration": 0.0,
        "mode": 0,
        "lookForward": false,
        "spline": {
            "points": []
        }
    }
},
{
    "name": "msh_module_bendSmall",
    "ID": -1060,
    "mesh": "msh_module_bendSmall.fbx",
    "tag": "Untagged",
    "transform": {
        "e00": 1.0,
        "e01": 0.0,
        "e02": 0.0,
        "e03": 1600.0,
        "e10": 0.0,
        "e11": 1.0,
        "e12": 0.0,
        "e13": 0.0,
        "e20": 0.0,
        "e21": 0.0,
        "e22": 1.0,
        "e23": 0.0,
        "e30": 0.0,
        "e31": 0.0,
        "e32": 0.0,
        "e33": 1.0
    },
    "parent": "",
    "lightType": "",
    "lightColor": "",
    "lightIntensity": "",
    "animationInfo": {
        "duration": 0.0,
        "mode": 0,
        "lookForward": false,
        "spline": {
            "points": []
        }
    }
},
{
    "name": "msh_module_bendLarge",
    "ID": -1096,
    "mesh": "msh_module_bendLarge.fbx",
    "tag": "Untagged",
    "transform": {
        "e00": 1.0,
        "e01": 0.0,
        "e02": 0.0,
        "e03": 3200.0,
        "e10": 0.0,
        "e11": 1.0,
        "e12": 0.0,
        "e13": 0.0,
        "e20": 0.0,
        "e21": 0.0,
        "e22": 1.0,
        "e23": 0.0,
        "e30": 0.0,
        "e31": 0.0,
        "e32": 0.0,
        "e33": 1.0
    },
    "parent": "",
    "lightType": "",
    "lightColor": "",
    "lightIntensity": "",
    "animationInfo": {
        "duration": 0.0,
        "mode": 0,
        "lookForward": false,
        "spline": {
            "points": []
        }
    }
},
{
    "name": "msh_module_bendSmall (1)",
    "ID": -1054,
    "mesh": "msh_module_bendSmall.fbx",
    "tag": "Untagged",
    "transform": {
        "e00": -1.1920928955078126e-7,
        "e01": 0.0,
        "e02": -1.0000001192092896,
        "e03": 1800.0,
        "e10": 0.0,
        "e11": 1.0,
        "e12": 0.0,
        "e13": 2000.0,
        "e20": 1.0000001192092896,
        "e21": 0.0,
        "e22": -1.1920928955078126e-7,
        "e23": -2400.0,
        "e30": 0.0,
        "e31": 0.0,
        "e32": 0.0,
        "e33": 1.0
    },
    "parent": "",
    "lightType": "",
    "lightColor": "",
    "lightIntensity": "",
    "animationInfo": {
        "duration": 0.0,
        "mode": 0,
        "lookForward": false,
        "spline": {
            "points": []
        }
    }
},
{
    "name": "msh_module_bendLarge (1)",
    "ID": -1004,
    "mesh": "msh_module_bendLarge.fbx",
    "tag": "Untagged",
    "transform": {
        "e00": -1.1920928955078126e-7,
        "e01": 0.0,
        "e02": 1.0000001192092896,
        "e03": 3000.0,
        "e10": 0.0,
        "e11": 1.0,
        "e12": 0.0,
        "e13": 2000.0,
        "e20": -1.0000001192092896,
        "e21": 0.0,
        "e22": -1.1920928955078126e-7,
        "e23": -2400.0,
        "e30": 0.0,
        "e31": 0.0,
        "e32": 0.0,
        "e33": 1.0
    },
    "parent": "",
    "lightType": "",
    "lightColor": "",
    "lightIntensity": "",
    "animationInfo": {
        "duration": 0.0,
        "mode": 0,
        "lookForward": false,
        "spline": {
            "points": []
        }
    }
},
{
    "name": "msh_module_bendSmall (2)",
    "ID": -1132,
    "mesh": "msh_module_bendSmall.fbx",
    "tag": "Untagged",
    "transform": {
        "e00": 1.0,
        "e01": 0.0,
        "e02": 0.0,
        "e03": 3000.0,
        "e10": 0.0,
        "e11": -1.1920928955078126e-7,
        "e12": 1.0000001192092896,
        "e13": 2800.0,
        "e20": 0.0,
        "e21": -1.0000001192092896,
        "e22": -1.1920928955078126e-7,
        "e23": -3600.0,
        "e30": 0.0,
        "e31": 0.0,
        "e32": 0.0,
        "e33": 1.0
    },
    "parent": "",
    "lightType": "",
    "lightColor": "",
    "lightIntensity": "",
    "animationInfo": {
        "duration": 0.0,
        "mode": 0,
        "lookForward": false,
        "spline": {
            "points": []
        }
    }
},
{
    "name": "msh_module_linearBend (1)",
    "ID": -1138,
    "mesh": "msh_module_linearBend.fbx",
    "tag": "Untagged",
    "transform": {
        "e00": -1.0,
        "e01": 0.0,
        "e02": 0.0,
        "e03": 4600.0,
        "e10": 0.0,
        "e11": 1.0,
        "e12": 0.0,
        "e13": 2800.0,
        "e20": 0.0,
        "e21": 0.0,
        "e22": -1.0,
        "e23": -3600.0,
        "e30": 0.0,
        "e31": 0.0,
        "e32": 0.0,
        "e33": 1.0
    },
    "parent": "",
    "lightType": "",
    "lightColor": "",
    "lightIntensity": "",
    "animationInfo": {
        "duration": 0.0,
        "mode": 0,
        "lookForward": false,
        "spline": {
            "points": []
        }
    }
},
{
    "name": "msh_module_bendLarge (2)",
    "ID": -1144,
    "mesh": "msh_module_bendLarge.fbx",
    "tag": "Untagged",
    "transform": {
        "e00": 1.0,
        "e01": 0.0,
        "e02": 0.0,
        "e03": 4600.0,
        "e10": 0.0,
        "e11": 1.0,
        "e12": 0.0,
        "e13": 2800.0,
        "e20": 0.0,
        "e21": 0.0,
        "e22": 1.0,
        "e23": -2400.0,
        "e30": 0.0,
        "e31": 0.0,
        "e32": 0.0,
        "e33": 1.0
    },
    "parent": "",
    "lightType": "",
    "lightColor": "",
    "lightIntensity": "",
    "animationInfo": {
        "duration": 0.0,
        "mode": 0,
        "lookForward": false,
        "spline": {
            "points": []
        }
    }
},
{
    "name": "msh_module_bendLarge (3)",
    "ID": -1010,
    "mesh": "msh_module_bendLarge.fbx",
    "tag": "Untagged",
    "transform": {
        "e00": -1.1920928955078126e-7,
        "e01": 0.0,
        "e02": 1.0000001192092896,
        "e03": 6600.0,
        "e10": 1.0000001192092896,
        "e11": -2.384185791015625e-7,
        "e12": 0.0,
        "e13": 800.0,
        "e20": 1.1920928955078126e-7,
        "e21": 1.0000001192092896,
        "e22": -1.1920928955078126e-7,
        "e23": -2400.0,
        "e30": 0.0,
        "e31": 0.0,
        "e32": 0.0,
        "e33": 1.0
    },
    "parent": "",
    "lightType": "",
    "lightColor": "",
    "lightIntensity": "",
    "animationInfo": {
        "duration": 0.0,
        "mode": 0,
        "lookForward": false,
        "spline": {
            "points": []
        }
    }
},
{
    "name": "msh_module_bendLarge (4)",
    "ID": -1072,
    "mesh": "msh_module_bendLarge.fbx",
    "tag": "Untagged",
    "transform": {
        "e00": 1.0000007152557374,
        "e01": 0.0,
        "e02": 0.0,
        "e03": 3400.0,
        "e10": 0.0,
        "e11": -1.1920937481590955e-7,
        "e12": -1.0000008344650269,
        "e13": 800.0,
        "e20": 0.0,
        "e21": 1.0000008344650269,
        "e22": -1.1920937481590955e-7,
        "e23": -2400.0,
        "e30": 0.0,
        "e31": 0.0,
        "e32": 0.0,
        "e33": 1.0
    },
    "parent": "",
    "lightType": "",
    "lightColor": "",
    "lightIntensity": "",
    "animationInfo": {
        "duration": 0.0,
        "mode": 0,
        "lookForward": false,
        "spline": {
            "points": []
        }
    }
},
{
    "name": "msh_module_bendSmall (3)",
    "ID": -1114,
    "mesh": "msh_module_bendSmall.fbx",
    "tag": "Untagged",
    "transform": {
        "e00": -1.1920928955078126e-7,
        "e01": -1.0000001192092896,
        "e02": 0.0,
        "e03": 3400.0,
        "e10": -1.0000001192092896,
        "e11": -1.1920928955078126e-7,
        "e12": 0.0,
        "e13": 2000.0,
        "e20": 0.0,
        "e21": 0.0,
        "e22": -1.000000238418579,
        "e23": -2400.0,
        "e30": 0.0,
        "e31": 0.0,
        "e32": 0.0,
        "e33": 1.0
    },
    "parent": "",
    "lightType": "",
    "lightColor": "",
    "lightIntensity": "",
    "animationInfo": {
        "duration": 0.0,
        "mode": 0,
        "lookForward": false,
        "spline": {
            "points": []
        }
    }
},
{
    "name": "msh_module_bendSmall (4)",
    "ID": -1030,
    "mesh": "msh_module_bendSmall.fbx",
    "tag": "Untagged",
    "transform": {
        "e00": -1.0000007152557374,
        "e01": 0.0,
        "e02": 0.0,
        "e03": 3400.0,
        "e10": 0.0,
        "e11": -1.0000007152557374,
        "e12": 0.0,
        "e13": 2000.0,
        "e20": 0.0,
        "e21": 0.0,
        "e22": 1.0000014305114747,
        "e23": -1600.0,
        "e30": 0.0,
        "e31": 0.0,
        "e32": 0.0,
        "e33": 1.0
    },
    "parent": "",
    "lightType": "",
    "lightColor": "",
    "lightIntensity": "",
    "animationInfo": {
        "duration": 0.0,
        "mode": 0,
        "lookForward": false,
        "spline": {
            "points": []
        }
    }
},
{
    "name": "Hex_Section",
    "ID": 9192,
    "mesh": "",
    "tag": "Untagged",
    "transform": {
        "e00": 1.0,
        "e01": 0.0,
        "e02": 0.0,
        "e03": -3300.0,
        "e10": 0.0,
        "e11": 1.0,
        "e12": 0.0,
        "e13": -3100.0,
        "e20": 0.0,
        "e21": 0.0,
        "e22": 1.0,
        "e23": -7800.0,
        "e30": 0.0,
        "e31": 0.0,
        "e32": 0.0,
        "e33": 1.0
    },
    "parent": "",
    "lightType": "",
    "lightColor": "",
    "lightIntensity": "",
    "animationInfo": {
        "duration": 0.0,
        "mode": 0,
        "lookForward": false,
        "spline": {
            "points": []
        }
    }
},
{
    "name": "msh_module_hexSection",
    "ID": -1150,
    "mesh": "msh_module_hexSection.fbx",
    "tag": "Untagged",
    "transform": {
        "e00": 1.0,
        "e01": 0.0,
        "e02": 0.0,
        "e03": 4500.0,
        "e10": 0.0,
        "e11": 1.0,
        "e12": 0.0,
        "e13": 0.0,
        "e20": 0.0,
        "e21": 0.0,
        "e22": 1.0,
        "e23": 0.0,
        "e30": 0.0,
        "e31": 0.0,
        "e32": 0.0,
        "e33": 1.0
    },
    "parent": "",
    "lightType": "",
    "lightColor": "",
    "lightIntensity": "",
    "animationInfo": {
        "duration": 0.0,
        "mode": 0,
        "lookForward": false,
        "spline": {
            "points": []
        }
    }
},
{
    "name": "msh_module_hexSection (1)",
    "ID": -1042,
    "mesh": "msh_module_hexSection.fbx",
    "tag": "Untagged",
    "transform": {
        "e00": 1.0,
        "e01": 0.0,
        "e02": 0.0,
        "e03": 3000.0,
        "e10": 0.0,
        "e11": 1.0,
        "e12": 0.0,
        "e13": 2000.0,
        "e20": 0.0,
        "e21": 0.0,
        "e22": 1.0,
        "e23": -3600.0,
        "e30": 0.0,
        "e31": 0.0,
        "e32": 0.0,
        "e33": 1.0
    },
    "parent": "",
    "lightType": "",
    "lightColor": "",
    "lightIntensity": "",
    "animationInfo": {
        "duration": 0.0,
        "mode": 0,
        "lookForward": false,
        "spline": {
            "points": []
        }
    }
},
{
    "name": "msh_module_hexSection (2)",
    "ID": -1126,
    "mesh": "msh_module_hexSection.fbx",
    "tag": "Untagged",
    "transform": {
        "e00": 1.0,
        "e01": 0.0,
        "e02": 0.0,
        "e03": 6600.0,
        "e10": 0.0,
        "e11": 1.0,
        "e12": 0.0,
        "e13": 2800.0,
        "e20": 0.0,
        "e21": 0.0,
        "e22": 1.0,
        "e23": -2400.0,
        "e30": 0.0,
        "e31": 0.0,
        "e32": 0.0,
        "e33": 1.0
    },
    "parent": "",
    "lightType": "",
    "lightColor": "",
    "lightIntensity": "",
    "animationInfo": {
        "duration": 0.0,
        "mode": 0,
        "lookForward": false,
        "spline": {
            "points": []
        }
    }
},
{
    "name": "Straight_Section",
    "ID": 9208,
    "mesh": "",
    "tag": "Untagged",
    "transform": {
        "e00": 1.0,
        "e01": 0.0,
        "e02": 0.0,
        "e03": -3300.0,
        "e10": 0.0,
        "e11": 1.0,
        "e12": 0.0,
        "e13": -3100.0,
        "e20": 0.0,
        "e21": 0.0,
        "e22": 1.0,
        "e23": -7800.0,
        "e30": 0.0,
        "e31": 0.0,
        "e32": 0.0,
        "e33": 1.0
    },
    "parent": "",
    "lightType": "",
    "lightColor": "",
    "lightIntensity": "",
    "animationInfo": {
        "duration": 0.0,
        "mode": 0,
        "lookForward": false,
        "spline": {
            "points": []
        }
    }
},
{
    "name": "msh_module_straightSection",
    "ID": -1090,
    "mesh": "msh_module_straightSection.fbx",
    "tag": "Untagged",
    "transform": {
        "e00": 1.0,
        "e01": 0.0,
        "e02": 0.0,
        "e03": 5900.0,
        "e10": 0.0,
        "e11": 1.0,
        "e12": 0.0,
        "e13": 0.0,
        "e20": 0.0,
        "e21": 0.0,
        "e22": 1.0,
        "e23": 0.0,
        "e30": 0.0,
        "e31": 0.0,
        "e32": 0.0,
        "e33": 1.0
    },
    "parent": "",
    "lightType": "",
    "lightColor": "",
    "lightIntensity": "",
    "animationInfo": {
        "duration": 0.0,
        "mode": 0,
        "lookForward": false,
        "spline": {
            "points": []
        }
    }
},
{
    "name": "msh_module_straightSection (1)",
    "ID": -1048,
    "mesh": "msh_module_straightSection.fbx",
    "tag": "Untagged",
    "transform": {
        "e00": 1.0,
        "e01": 0.0,
        "e02": 0.0,
        "e03": 1800.0,
        "e10": 0.0,
        "e11": 1.0,
        "e12": 0.0,
        "e13": 2000.0,
        "e20": 0.0,
        "e21": 0.0,
        "e22": 1.0,
        "e23": 0.0,
        "e30": 0.0,
        "e31": 0.0,
        "e32": 0.0,
        "e33": 1.0
    },
    "parent": "",
    "lightType": "",
    "lightColor": "",
    "lightIntensity": "",
    "animationInfo": {
        "duration": 0.0,
        "mode": 0,
        "lookForward": false,
        "spline": {
            "points": []
        }
    }
},
{
    "name": "msh_module_straightSection (2)",
    "ID": -1084,
    "mesh": "msh_module_straightSection.fbx",
    "tag": "Untagged",
    "transform": {
        "e00": 1.0,
        "e01": 0.0,
        "e02": 0.0,
        "e03": 1800.0,
        "e10": 0.0,
        "e11": 1.0,
        "e12": 0.0,
        "e13": 2000.0,
        "e20": 0.0,
        "e21": 0.0,
        "e22": 1.0,
        "e23": -800.0,
        "e30": 0.0,
        "e31": 0.0,
        "e32": 0.0,
        "e33": 1.0
    },
    "parent": "",
    "lightType": "",
    "lightColor": "",
    "lightIntensity": "",
    "animationInfo": {
        "duration": 0.0,
        "mode": 0,
        "lookForward": false,
        "spline": {
            "points": []
        }
    }
},
{
    "name": "msh_module_straightSection (3)",
    "ID": -1102,
    "mesh": "msh_module_straightSection.fbx",
    "tag": "Untagged",
    "transform": {
        "e00": -1.1920928955078126e-7,
        "e01": 0.0,
        "e02": 1.0000001192092896,
        "e03": 5800.0,
        "e10": 0.0,
        "e11": 1.0,
        "e12": 0.0,
        "e13": 2800.0,
        "e20": -1.0000001192092896,
        "e21": 0.0,
        "e22": -1.1920928955078126e-7,
        "e23": -2400.0,
        "e30": 0.0,
        "e31": 0.0,
        "e32": 0.0,
        "e33": 1.0
    },
    "parent": "",
    "lightType": "",
    "lightColor": "",
    "lightIntensity": "",
    "animationInfo": {
        "duration": 0.0,
        "mode": 0,
        "lookForward": false,
        "spline": {
            "points": []
        }
    }
},
{
    "name": "msh_module_straightSection (4)",
    "ID": -1108,
    "mesh": "msh_module_straightSection.fbx",
    "tag": "Untagged",
    "transform": {
        "e00": 1.0,
        "e01": 0.0,
        "e02": 0.0,
        "e03": 6600.0,
        "e10": 0.0,
        "e11": -1.1920928955078126e-7,
        "e12": -1.0000001192092896,
        "e13": 2000.0,
        "e20": 0.0,
        "e21": 1.0000001192092896,
        "e22": -1.1920928955078126e-7,
        "e23": -2400.0,
        "e30": 0.0,
        "e31": 0.0,
        "e32": 0.0,
        "e33": 1.0
    },
    "parent": "",
    "lightType": "",
    "lightColor": "",
    "lightIntensity": "",
    "animationInfo": {
        "duration": 0.0,
        "mode": 0,
        "lookForward": false,
        "spline": {
            "points": []
        }
    }
},
{
    "name": "msh_module_straightSection (5)",
    "ID": -998,
    "mesh": "msh_module_straightSection.fbx",
    "tag": "Untagged",
    "transform": {
        "e00": -1.1920928955078126e-7,
        "e01": 0.0,
        "e02": 1.0000001192092896,
        "e03": 4600.0,
        "e10": 0.0,
        "e11": 1.0,
        "e12": 0.0,
        "e13": 800.0,
        "e20": -1.0000001192092896,
        "e21": 0.0,
        "e22": -1.1920928955078126e-7,
        "e23": -2400.0,
        "e30": 0.0,
        "e31": 0.0,
        "e32": 0.0,
        "e33": 1.0
    },
    "parent": "",
    "lightType": "",
    "lightColor": "",
    "lightIntensity": "",
    "animationInfo": {
        "duration": 0.0,
        "mode": 0,
        "lookForward": false,
        "spline": {
            "points": []
        }
    }
},
{
    "name": "msh_module_straightSection (6)",
    "ID": -1156,
    "mesh": "msh_module_straightSection.fbx",
    "tag": "Untagged",
    "transform": {
        "e00": -1.1920937481590955e-7,
        "e01": 0.0,
        "e02": 1.0000008344650269,
        "e03": 2600.0,
        "e10": 0.0,
        "e11": 1.0,
        "e12": 0.0,
        "e13": 2000.0,
        "e20": -1.0000008344650269,
        "e21": 0.0,
        "e22": -1.1920937481590955e-7,
        "e23": -1600.0,
        "e30": 0.0,
        "e31": 0.0,
        "e32": 0.0,
        "e33": 1.0
    },
    "parent": "",
    "lightType": "",
    "lightColor": "",
    "lightIntensity": "",
    "animationInfo": {
        "duration": 0.0,
        "mode": 0,
        "lookForward": false,
        "spline": {
            "points": []
        }
    }
},
{
    "name": "msh_module_straightSection (7)",
    "ID": -1066,
    "mesh": "msh_module_straightSection.fbx",
    "tag": "Untagged",
    "transform": {
        "e00": -1.1920946008103784e-7,
        "e01": 0.0,
        "e02": 1.0000015497207642,
        "e03": 1000.0,
        "e10": 0.0,
        "e11": 1.0,
        "e12": 0.0,
        "e13": 2000.0,
        "e20": -1.0000015497207642,
        "e21": 0.0,
        "e22": -1.1920946008103784e-7,
        "e23": -1600.0,
        "e30": 0.0,
        "e31": 0.0,
        "e32": 0.0,
        "e33": 1.0
    },
    "parent": "",
    "lightType": "",
    "lightColor": "",
    "lightIntensity": "",
    "animationInfo": {
        "duration": 0.0,
        "mode": 0,
        "lookForward": false,
        "spline": {
            "points": []
        }
    }
},
{
    "name": "X_Section",
    "ID": 9212,
    "mesh": "",
    "tag": "Untagged",
    "transform": {
        "e00": 1.0,
        "e01": 0.0,
        "e02": 0.0,
        "e03": 2500.0,
        "e10": 0.0,
        "e11": 1.0,
        "e12": 0.0,
        "e13": 0.0,
        "e20": 0.0,
        "e21": 0.0,
        "e22": 1.0,
        "e23": 0.0,
        "e30": 0.0,
        "e31": 0.0,
        "e32": 0.0,
        "e33": 1.0
    },
    "parent": "",
    "lightType": "",
    "lightColor": "",
    "lightIntensity": "",
    "animationInfo": {
        "duration": 0.0,
        "mode": 0,
        "lookForward": false,
        "spline": {
            "points": []
        }
    }
},
{
    "name": "msh_playerReference_xSection",
    "ID": -1016,
    "mesh": "msh_playerReference_xSection.fbx",
    "tag": "Untagged",
    "transform": {
        "e00": 1.0,
        "e01": 0.0,
        "e02": 0.0,
        "e03": 2500.0,
        "e10": 0.0,
        "e11": 1.0,
        "e12": 0.0,
        "e13": 0.0,
        "e20": 0.0,
        "e21": 0.0,
        "e22": 1.0,
        "e23": 0.0,
        "e30": 0.0,
        "e31": 0.0,
        "e32": 0.0,
        "e33": 1.0
    },
    "parent": "",
    "lightType": "",
    "lightColor": "",
    "lightIntensity": "",
    "animationInfo": {
        "duration": 0.0,
        "mode": 0,
        "lookForward": false,
        "spline": {
            "points": []
        }
    }
},
{
    "name": "msh_playerReference_xSection (2)",
    "ID": -1036,
    "mesh": "msh_playerReference_xSection.fbx",
    "tag": "Untagged",
    "transform": {
        "e00": 1.0,
        "e01": 0.0,
        "e02": 0.0,
        "e03": 5400.0,
        "e10": 0.0,
        "e11": 1.0,
        "e12": 0.0,
        "e13": 800.0,
        "e20": 0.0,
        "e21": 0.0,
        "e22": 1.0,
        "e23": -2400.0,
        "e30": 0.0,
        "e31": 0.0,
        "e32": 0.0,
        "e33": 1.0
    },
    "parent": "",
    "lightType": "",
    "lightColor": "",
    "lightIntensity": "",
    "animationInfo": {
        "duration": 0.0,
        "mode": 0,
        "lookForward": false,
        "spline": {
            "points": []
        }
    }
},
{
    "name": "T_Section",
    "ID": 9236,
    "mesh": "",
    "tag": "Untagged",
    "transform": {
        "e00": 1.0,
        "e01": 0.0,
        "e02": 0.0,
        "e03": -3300.0,
        "e10": 0.0,
        "e11": 1.0,
        "e12": 0.0,
        "e13": -3100.0,
        "e20": 0.0,
        "e21": 0.0,
        "e22": 1.0,
        "e23": -7800.0,
        "e30": 0.0,
        "e31": 0.0,
        "e32": 0.0,
        "e33": 1.0
    },
    "parent": "",
    "lightType": "",
    "lightColor": "",
    "lightIntensity": "",
    "animationInfo": {
        "duration": 0.0,
        "mode": 0,
        "lookForward": false,
        "spline": {
            "points": []
        }
    }
},
{
    "name": "msh_module_tSection",
    "ID": -1120,
    "mesh": "msh_module_tSection.fbx",
    "tag": "Untagged",
    "transform": {
        "e00": 1.0,
        "e01": 0.0,
        "e02": 0.0,
        "e03": 700.0,
        "e10": 0.0,
        "e11": 1.0,
        "e12": 0.0,
        "e13": 0.0,
        "e20": 0.0,
        "e21": 0.0,
        "e22": 1.0,
        "e23": 0.0,
        "e30": 0.0,
        "e31": 0.0,
        "e32": 0.0,
        "e33": 1.0
    },
    "parent": "",
    "lightType": "",
    "lightColor": "",
    "lightIntensity": "",
    "animationInfo": {
        "duration": 0.0,
        "mode": 0,
        "lookForward": false,
        "spline": {
            "points": []
        }
    }
},
{
    "name": "msh_module_tSection (1)",
    "ID": -1078,
    "mesh": "msh_module_tSection.fbx",
    "tag": "Untagged",
    "transform": {
        "e00": -1.0,
        "e01": 0.0,
        "e02": 0.0,
        "e03": 3800.0,
        "e10": 0.0,
        "e11": 1.0,
        "e12": 0.0,
        "e13": 2800.0,
        "e20": 0.0,
        "e21": 0.0,
        "e22": -1.0,
        "e23": -3600.0,
        "e30": 0.0,
        "e31": 0.0,
        "e32": 0.0,
        "e33": 1.0
    },
    "parent": "",
    "lightType": "",
    "lightColor": "",
    "lightIntensity": "",
    "animationInfo": {
        "duration": 0.0,
        "mode": 0,
        "lookForward": false,
        "spline": {
            "points": []
        }
    }
}
	
]
}