{
    "Objects": [

        {
            "name": "msh_module_bendSmall",
            "ID": -1072,
            "mesh": "msh_module_bendSmall.fbx",
            "tag": "Untagged",
            "transform": {
                "e00": 1.0,
                "e01": 0.0,
                "e02": 0.0,
                "e03": -6.139999866485596,
                "e10": 0.0,
                "e11": 1.0,
                "e12": 0.0,
                "e13": 5.880000114440918,
                "e20": 0.0,
                "e21": 0.0,
                "e22": 1.0,
                "e23": -7.949999809265137,
                "e30": 0.0,
                "e31": 0.0,
                "e32": 0.0,
                "e33": 1.0
            },
            "rotation": {
                "x": 0.0,
                "y": 0.0,
                "z": 0.0
            },
            "parent": "",
            "lightType": "",
            "lightRange": 0.0,
            "lightColor": {
                "x": 0.0,
                "y": 0.0,
                "z": 0.0,
                "w": 0.0
            },
            "lightIntensity": 0.0,
            "animationInfo": {
                "duration": 0.0,
                "mode": 0,
                "lookForward": false,
                "spline": {
                    "points": [ ]
                }
            },
            "sphereColliderRadius": 0.0
        },
        {
            "name": "msh_hull_debri_01",
            "ID": -1022,
            "mesh": "msh_hull_debri_01.fbx",
            "tag": "Untagged",
            "transform": {
                "e00": 1.0,
                "e01": 0.0,
                "e02": 0.0,
                "e03": -7.718268394470215,
                "e10": 0.0,
                "e11": 1.0,
                "e12": 0.0,
                "e13": 3.042093276977539,
                "e20": 0.0,
                "e21": 0.0,
                "e22": 1.0,
                "e23": 7.567614555358887,
                "e30": 0.0,
                "e31": 0.0,
                "e32": 0.0,
                "e33": 1.0
            },
            "rotation": {
                "x": 0.0,
                "y": 0.0,
                "z": 0.0
            },
            "parent": "",
            "lightType": "",
            "lightRange": 0.0,
            "lightColor": {
                "x": 0.0,
                "y": 0.0,
                "z": 0.0,
                "w": 0.0
            },
            "lightIntensity": 0.0,
            "animationInfo": {
                "duration": 0.0,
                "mode": 0,
                "lookForward": false,
                "spline": {
                    "points": [ ]
                }
            },
            "sphereColliderRadius": 0.0
        },
        {
            "name": "msh_hull_debri_01",
            "ID": -1022,
            "mesh": "msh_hull_debri_01.fbx",
            "tag": "Untagged",
            "transform": {
                "e00": 1.0,
                "e01": 0.0,
                "e02": 0.0,
                "e03": -7.718268394470215,
                "e10": 0.0,
                "e11": 1.0,
                "e12": 0.0,
                "e13": 3.042093276977539,
                "e20": 0.0,
                "e21": 0.0,
                "e22": 1.0,
                "e23": 7.567614555358887,
                "e30": 0.0,
                "e31": 0.0,
                "e32": 0.0,
                "e33": 1.0
            },
            "rotation": {
                "x": 0.0,
                "y": 0.0,
                "z": 0.0
            },
            "parent": "",
            "lightType": "",
            "lightRange": 0.0,
            "lightColor": {
                "x": 0.0,
                "y": 0.0,
                "z": 0.0,
                "w": 0.0
            },
            "lightIntensity": 0.0,
            "animationInfo": {
                "duration": 0.0,
                "mode": 0,
                "lookForward": false,
                "spline": {
                    "points": [ ]
                }
            },
            "sphereColliderRadius": 0.0
        },
        {
            "name": "Enemy1",
            "ID": -1048,
            "mesh": "msh_enemyShip_01.fbx",
            "tag": "Enemy",
            "transform": {
                "e00": 1.0,
                "e01": 0.0,
                "e02": 0.0,
                "e03": -6.090000152587891,
                "e10": 0.0,
                "e11": 1.0,
                "e12": 0.0,
                "e13": 5.900000095367432,
                "e20": 0.0,
                "e21": 0.0,
                "e22": 1.0,
                "e23": -14.539999961853028,
                "e30": 0.0,
                "e31": 0.0,
                "e32": 0.0,
                "e33": 1.0
            },
            "rotation": {
                "x": 0.0,
                "y": 0.0,
                "z": 0.0
            },
            "parent": "",
            "lightType": "",
            "lightRange": 0.0,
            "lightColor": {
                "x": 0.0,
                "y": 0.0,
                "z": 0.0,
                "w": 0.0
            },
            "lightIntensity": 0.0,
            "animationInfo": {
                "closed":  false,
                "duration": 0.0,
                "mode": 0,
                "lookForward": false,
                "spline": {
                    "points": [
                    ]
                }
            },
            "sphereColliderRadius": 0.0,
            "enemyData": {
                "maxHp": 20.0,
                "damage": 20.0,
                "speed": 0.0,
                "fireRate": 0.5
            }
        },
        {
            "name": "msh_hull_debri_05",
            "ID": -1048,
            "mesh": "msh_hull_debri_05.fbx",
            "tag": "Untagged",
            "transform": {
                "e00": 1.0,
                "e01": 0.0,
                "e02": 0.0,
                "e03": -8.788601875305176,
                "e10": 0.0,
                "e11": 1.0,
                "e12": 0.0,
                "e13": 3.9220521450042726,
                "e20": 0.0,
                "e21": 0.0,
                "e22": 1.0,
                "e23": 2.5056543350219728,
                "e30": 0.0,
                "e31": 0.0,
                "e32": 0.0,
                "e33": 1.0
            },
            "rotation": {
                "x": 0.0,
                "y": 0.0,
                "z": 0.0
            },
            "parent": "",
            "lightType": "",
            "lightRange": 0.0,
            "lightColor": {
                "x": 0.0,
                "y": 0.0,
                "z": 0.0,
                "w": 0.0
            },
            "lightIntensity": 0.0,
            "animationInfo": {
                "duration": 0.0,
                "mode": 0,
                "lookForward": false,
                "spline": {
                    "points": [ ]
                }
            },
            "sphereColliderRadius": 0.0
        },
        {
            "name": "msh_module_straightSection",
            "ID": -1056,
            "mesh": "msh_module_straightSection.fbx",
            "tag": "Untagged",
            "transform": {
                "e00": 1.0,
                "e01": 0.0,
                "e02": 0.0,
                "e03": -6.090000152587891,
                "e10": 0.0,
                "e11": 1.0,
                "e12": 0.0,
                "e13": 5.900000095367432,
                "e20": 0.0,
                "e21": 0.0,
                "e22": 1.0,
                "e23": -14.539999961853028,
                "e30": 0.0,
                "e31": 0.0,
                "e32": 0.0,
                "e33": 1.0
            },
            "rotation": {
                "x": 0.0,
                "y": 0.0,
                "z": 0.0
            },
            "parent": "",
            "lightType": "",
            "lightRange": 0.0,
            "lightColor": {
                "x": 0.0,
                "y": 0.0,
                "z": 0.0,
                "w": 0.0
            },
            "lightIntensity": 0.0,
            "animationInfo": {
                "duration": 0.0,
                "mode": 0,
                "lookForward": false,
                "spline": {
                    "points": [ ]
                }
            },
            "sphereColliderRadius": 0.0
        },
        {
            "name": "GameObject",
            "ID": 9250,
            "mesh": "",
            "tag": "Untagged",
            "transform": {
                "e00": -0.9998682737350464,
                "e01": -0.00015867152251303196,
                "e02": -0.01623491756618023,
                "e03": 0.0,
                "e10": 7.275957614183426e-12,
                "e11": 0.9999522566795349,
                "e12": -0.009773007594048977,
                "e13": 0.0,
                "e20": 0.01623569242656231,
                "e21": -0.009771718643605709,
                "e22": -0.9998204708099365,
                "e23": 0.0,
                "e30": 0.0,
                "e31": 0.0,
                "e32": 0.0,
                "e33": 1.0
            },
            "rotation": {
                "x": 0.5599610209465027,
                "y": 180.93028259277345,
                "z": 4.169015965782563e-10
            },
            "parent": "",
            "lightType": "",
            "lightRange": 0.0,
            "lightColor": {
                "x": 0.0,
                "y": 0.0,
                "z": 0.0,
                "w": 0.0
            },
            "lightIntensity": 0.0,
            "animationInfo": {
                "duration": 30.0,
                "mode": 1,
                "lookForward": true,
                "closed": true,
                "spline": {
                    "points": [
                        {
                            "point": {
                                "x": 0.0,
                                "y": 0.0,
                                "z": 0.0
                            },
                            "handle1": {
                                "x": -0.18945884704589845,
                                "y": -0.000042438507080078125,
                                "z": -3.956101894378662
                            },
                            "handle2": {
                                "x": 0.18945884704589845,
                                "y": 0.000042438507080078125,
                                "z": 3.956101894378662
                            }
                        },
                        {
                            "point": {
                                "x": -5.107134819030762,
                                "y": 0.9217624664306641,
                                "z": 7.978209495544434
                            },
                            "handle1": {
                                "x": 3.5384607315063478,
                                "y": -0.3134326934814453,
                                "z": -0.4475212097167969
                            },
                            "handle2": {
                                "x": -3.5384607315063478,
                                "y": 0.3134326934814453,
                                "z": 0.4475212097167969
                            }
                        },
                        {
                            "point": {
                                "x": -11.578141212463379,
                                "y": 1.3405418395996094,
                                "z": -1.0676426887512208
                            },
                            "handle1": {
                                "x": 1.4611082077026368,
                                "y": -2.0919666290283205,
                                "z": 3.9369349479675295
                            },
                            "handle2": {
                                "x": -1.4611082077026368,
                                "y": 2.0919666290283205,
                                "z": -3.9369349479675295
                            }
                        },
                        {
                            "point": {
                                "x": -11.813728332519532,
                                "y": 4.696274757385254,
                                "z": -17.081424713134767
                            },
                            "handle1": {
                                "x": -1.4272956848144532,
                                "y": -0.5664353370666504,
                                "z": 3.9475631713867189
                            },
                            "handle2": {
                                "x": 1.4272956848144532,
                                "y": 0.5664353370666504,
                                "z": -3.9475631713867189
                            }
                        },
                        {
                            "point": {
                                "x": -6.495157241821289,
                                "y": 5.187671661376953,
                                "z": -21.705217361450197
                            },
                            "handle1": {
                                "x": -1.6812686920166016,
                                "y": -0.5488338470458984,
                                "z": -4.16316032409668
                            },
                            "handle2": {
                                "x": 1.6812686920166016,
                                "y": 0.5488338470458984,
                                "z": 4.16316032409668
                            }
                        },
                        {
                            "point": {
                                "x": -4.405515670776367,
                                "y": 5.588678359985352,
                                "z": -7.835117816925049
                            },
                            "handle1": {
                                "x": -3.9697134494781496,
                                "y": -0.4543304443359375,
                                "z": -0.1421513557434082
                            },
                            "handle2": {
                                "x": 3.9697134494781496,
                                "y": 0.4543304443359375,
                                "z": 0.1421513557434082
                            }
                        },
                        {
                            "point": {
                                "x": 6.065830230712891,
                                "y": 5.318487644195557,
                                "z": -7.067085266113281
                            },
                            "handle1": {
                                "x": 2.0959973335266115,
                                "y": -0.6672930717468262,
                                "z": -2.6599292755126955
                            },
                            "handle2": {
                                "x": -2.0959973335266115,
                                "y": 0.6672930717468262,
                                "z": 2.6599292755126955
                            }
                        }
                    ]
                }
            },
            "sphereColliderRadius": 0.0
        },
        {
            "name": "msh_playerShip",
            "ID": -1038,
            "mesh": "",
            "tag": "Player",
            "transform": {
                "e00": 0.9998682737350464,
                "e01": -0.00015867152251303196,
                "e02": 0.01623491756618023,
                "e03": 0.0,
                "e10": -7.275957614183426e-12,
                "e11": 0.9999522566795349,
                "e12": 0.009773007594048977,
                "e13": 0.0,
                "e20": -0.01623569242656231,
                "e21": -0.009771718643605709,
                "e22": 0.9998204708099365,
                "e23": 0.0,
                "e30": 0.0,
                "e31": 0.0,
                "e32": 0.0,
                "e33": 1.0
            },
            "rotation": {
                "x": 0.0,
                "y": 180.0,
                "z": 0.0
            },
            "parent": "GameObject",
            "lightType": "",
            "lightRange": 0.0,
            "lightColor": {
                "x": 0.0,
                "y": 0.0,
                "z": 0.0,
                "w": 0.0
            },
            "lightIntensity": 0.0,
            "animationInfo": {
                "duration": 0.0,
                "mode": 0,
                "lookForward": false,
                "spline": {
                    "points": [ ]
                }
            },
            "sphereColliderRadius": 0.0
        },
        {
            "name": "msh_playerShip 1",
            "ID": -1040,
            "mesh": "msh_playerShip.fbx",
            "tag": "Player",
            "transform": {
                "e00": 0.9998682737350464,
                "e01": -0.00015867152251303196,
                "e02": 0.01623491756618023,
                "e03": 0.0,
                "e10": -7.275957614183426e-12,
                "e11": 0.9999522566795349,
                "e12": 0.009773007594048977,
                "e13": 0.0,
                "e20": -0.01623569242656231,
                "e21": -0.009771718643605709,
                "e22": 0.9998204708099365,
                "e23": 0.0,
                "e30": 0.0,
                "e31": 0.0,
                "e32": 0.0,
                "e33": 1.0
            },
            "rotation": {
                "x": 0.0,
                "y": 0.0,
                "z": 0.0
            },
            "parent": "msh_playerShip",
            "lightType": "",
            "lightRange": 0.0,
            "lightColor": {
                "x": 0.0,
                "y": 0.0,
                "z": 0.0,
                "w": 0.0
            },
            "lightIntensity": 0.0,
            "animationInfo": {
                "duration": 0.0,
                "mode": 0,
                "lookForward": false,
                "spline": {
                    "points": [ ]
                }
            },
            "sphereColliderRadius": 0.0
        },
        {
            "name": "msh_crosshair",
            "ID": -18292,
            "mesh": "msh_crosshair.fbx",
            "tag": "Untagged",
            "transform": {
                "e00": -0.9998682737350464,
                "e01": -0.00015867152251303196,
                "e02": -0.01623491756618023,
                "e03": 0.04870475083589554,
                "e10": 7.275957614183426e-12,
                "e11": 0.9999522566795349,
                "e12": -0.009773007594048977,
                "e13": 0.029319021850824357,
                "e20": 0.01623569242656231,
                "e21": -0.009771718643605709,
                "e22": -0.9998204708099365,
                "e23": 2.9994614124298097,
                "e30": 0.0,
                "e31": 0.0,
                "e32": 0.0,
                "e33": 1.0
            },
            "rotation": {
                "x": 0.0,
                "y": 180.0,
                "z": 0.0
            },
            "parent": "msh_playerShip",
            "lightType": "",
            "lightRange": 0.0,
            "lightColor": {
                "x": 0.0,
                "y": 0.0,
                "z": 0.0,
                "w": 0.0
            },
            "lightIntensity": 0.0,
            "animationInfo": {
                "duration": 0.0,
                "mode": 0,
                "lookForward": false,
                "spline": {
                    "points": [ ]
                }
            },
            "sphereColliderRadius": 0.0
        },
        {
            "name": "Camera",
            "ID": 9234,
            "mesh": "",
            "tag": "MainCamera",
            "transform": {
                "e00": 0.9998682737350464,
                "e01": -0.00015867152251303196,
                "e02": 0.01623491756618023,
                "e03": -0.04870475083589554,
                "e10": -7.275957614183426e-12,
                "e11": 0.9999522566795349,
                "e12": 0.009773007594048977,
                "e13": -0.029319021850824357,
                "e20": -0.01623569242656231,
                "e21": -0.009771718643605709,
                "e22": 0.9998204708099365,
                "e23": -2.9994614124298097,
                "e30": 0.0,
                "e31": 0.0,
                "e32": 0.0,
                "e33": 1.0
            },
            "rotation": {
                "x": 0.0,
                "y": 180.0,
                "z": 0.0
            },
            "parent": "GameObject",
            "lightType": "",
            "lightRange": 0.0,
            "lightColor": {
                "x": 0.0,
                "y": 0.0,
                "z": 0.0,
                "w": 0.0
            },
            "lightIntensity": 0.0,
            "animationInfo": {
                "duration": 0.0,
                "mode": 0,
                "lookForward": false,
                "spline": {
                    "points": [ ]
                }
            },
            "sphereColliderRadius": 0.0
        },
        {
            "name": "msh_debri_metal_06",
            "ID": -1064,
            "mesh": "msh_debri_metal_06.fbx",
            "tag": "Untagged",
            "transform": {
                "e00": 1.0,
                "e01": 0.0,
                "e02": 0.0,
                "e03": 0.0,
                "e10": 0.0,
                "e11": 1.0,
                "e12": 0.0,
                "e13": 0.0,
                "e20": 0.0,
                "e21": 0.0,
                "e22": 1.0,
                "e23": 0.0,
                "e30": 0.0,
                "e31": 0.0,
                "e32": 0.0,
                "e33": 1.0
            },
            "rotation": {
                "x": 0.0,
                "y": 0.0,
                "z": 0.0
            },
            "parent": "",
            "lightType": "",
            "lightRange": 0.0,
            "lightColor": {
                "x": 0.0,
                "y": 0.0,
                "z": 0.0,
                "w": 0.0
            },
            "lightIntensity": 0.0,
            "animationInfo": {
                "duration": 0.0,
                "mode": 0,
                "lookForward": false,
                "spline": {
                    "points": [ ]
                }
            },
            "sphereColliderRadius": 0.0
        },
        {
            "name": "msh_hull_debri_06",
            "ID": -1030,
            "mesh": "msh_hull_debri_06.fbx",
            "tag": "Untagged",
            "transform": {
                "e00": 1.0,
                "e01": 0.0,
                "e02": 0.0,
                "e03": -7.51875114440918,
                "e10": 0.0,
                "e11": 1.0,
                "e12": 0.0,
                "e13": 4.707430839538574,
                "e20": 0.0,
                "e21": 0.0,
                "e22": 1.0,
                "e23": 5.264222145080566,
                "e30": 0.0,
                "e31": 0.0,
                "e32": 0.0,
                "e33": 1.0
            },
            "rotation": {
                "x": 0.0,
                "y": 0.0,
                "z": 0.0
            },
            "parent": "",
            "lightType": "",
            "lightRange": 0.0,
            "lightColor": {
                "x": 0.0,
                "y": 0.0,
                "z": 0.0,
                "w": 0.0
            },
            "lightIntensity": 0.0,
            "animationInfo": {
                "duration": 0.0,
                "mode": 0,
                "lookForward": false,
                "spline": {
                    "points": [ ]
                }
            },
            "sphereColliderRadius": 0.0
        }

    ]
}