{
	  "ObjectData":
	  [
		    {
			    "posX": -3.05,
			    "posY": 0,
			    "posZ": 0
		    },
		    {
			    "posX": 3.2,
			    "posY": 0,
			    "posZ": 0
		    },
		    {
			    "posX": 0,
			    "posY": 3,
			    "posZ": 3
		    },
		    {
			    "posX": 0,
			    "posY": 1,
			    "posZ": 1
		    }
	  ]
}