{
    "GUIHolder": 
	[
		{
			"GUIHolderName": "GameOverScreen",
			"GUIType": "GameOver",
			"Widgets":
			[
				{
					"WidgetType": "Button",
					"Name": "GameOverMenu",
					"Events":
					{
						"OnMouseClick": "",
						"OnMouseEnter": "",
						"OnMouseExit": ""
					},
					"Position":
					{
						"x": 1,
						"y": -1
					},
					"HitBox":
					{
						"Width": 0.3,
						"Height": 0.2
					},
					"Size": 2,
					"Alpha": 1,
					"TexturePath": "Graphics//Textures//GUI//gameOver.dds"
				},
        {
          "WidgetType": "Button",
          "Name": "RetryButton",
          "Events": {
            "OnMouseClick": "Retry",
            "OnMouseEnter": "",
            "OnMouseExit": ""
          },
          "Position": {
            "x": 0.3,
            "y": 0.0
          },
          "HitBox": {
            "Width": 0.5,
            "Height": 0.2
          },
          "Size": 0.5,
          "Alpha": 1,
          "TexturePath": "Graphics//Textures//GUI//menu//gui_buttonRetryStatic.dds",
          "SelectTexturePath": "Graphics//Textures//GUI//menu//gui_buttonRetryHover.dds",
          "UnSelectTexturePath": "Graphics//Textures//GUI//menu//gui_buttonRetryStatic.dds"
        },
        {
					"WidgetType": "Button",
					"Name": "BackButton",
					"Events":
					{
						"OnMouseClick": "MainMenu",
						"OnMouseEnter": "",
						"OnMouseExit": ""
					},
					"Position":
					{
            "x": 0.3,
						"y": 0.1
					},
					"HitBox":
					{
						"Width": 0.5,
						"Height": 0.2
					},
					"Size": 0.5,
					"Alpha": 1,
					"TexturePath": "Graphics//Textures//GUI//menu//gui_buttonBackStatic.dds",
					"SelectTexturePath": "Graphics//Textures//GUI//menu//gui_buttonBackHover.dds",
					"UnSelectTexturePath": "Graphics//Textures//GUI//menu//gui_buttonBackStatic.dds"
				}
			]
		}
    ]
}