{
    "GUIHolder": 
	[
		{
			"GUIHolderName": "Level4Transition",
			"GUIType": "Transition5",
			"Widgets":
			[
				{
					"WidgetType": "Button",
					"Name": "TransitionBackground4",
					"Events":
					{
						"OnMouseClick": "",
						"OnMouseEnter": "",
						"OnMouseExit": ""
					},
					"Position":
					{
						"x": 1,
						"y": -1
					},
					"HitBox":
					{
						"Width": 0.3,
						"Height": 0.2
					},
					"Size": 2,
					"Alpha": 1,
					"TexturePath": "Graphics//Textures//GUI//transition//gui_transitionLevel4.dds",
					"SelectTexturePath": "",
					"UnSelectTexturePath": ""
				}
			]
		}
    ]
}