{
    "GUIHolder": 
	[
		{
			"GUIHolderName": "MainMenu",
			"GUIType": "Menu",
			"Widgets":
			[
				{
					"WidgetType": "Button",
					"Name": "Background",
					"Events":
					{
						"OnMouseClick": "",
						"OnMouseEnter": "",
						"OnMouseExit": ""
					},
					"Position":
					{
						"x": 1,
						"y": -1
					},
					"HitBox":
					{
						"Width": 2,
						"Height": 2
					},
					"Size": 2,
					"Alpha": 1,
					"TexturePath": "Graphics//Textures//GUI//menu//gui_menuStart.dds",
					"SelectTexturePath": "",
					"UnSelectTexturePath": ""
				},
				{
					"WidgetType": "Button",
					"Name": "StartButton",
					"Events":
					{
						"OnMouseClick": "Start",
						"OnMouseEnter": "",
						"OnMouseExit": ""
					},
					"Position":
					{
						"x": 0.82,
						"y": -0.2
					},
					"HitBox":
					{
						"Width": 0.5,
						"Height": 0.15
					},
					"Size": 0.5,
					"Alpha": 1,
					"TexturePath": "Graphics//Textures//GUI//menu//gui_buttonStartStatic.dds",
					"SelectTexturePath": "Graphics//Textures//GUI//menu//gui_buttonStartHover.dds",
					"UnSelectTexturePath": "Graphics//Textures//GUI//menu//gui_buttonStartStatic.dds"
				},
				{
					"WidgetType": "Button",
					"Name": "LevelSelectButton",
					"Events":
					{
						"OnMouseClick": "LevelSelect",
						"OnMouseEnter": "",
						"OnMouseExit": ""
					},
					"Position":
					{
						"x": 0.82,
						"y": -0.1
					},
					"HitBox":
					{
						"Width": 0.5,
						"Height": 0.15
					},
					"Size": 0.5,
					"Alpha": 1,
					"TexturePath": "Graphics//Textures//GUI//menu//gui_buttonLevelSelectedStatic.dds",
					"SelectTexturePath": "Graphics//Textures//GUI//menu//gui_buttonLevelSelectHover.dds",
					"UnSelectTexturePath": "Graphics//Textures//GUI//menu//gui_buttonLevelSelectedStatic.dds"
				},
				{
					"WidgetType": "Button",
					"Name": "CreditsButton",
					"Events":
					{
						"OnMouseClick": "Credits",
						"OnMouseEnter": "",
						"OnMouseExit": ""
					},
					"Position":
					{
						"x": 0.82,
						"y": 0
					},
					"HitBox":
					{
						"Width": 0.5,
						"Height": 0.15
					},
					"Size": 0.5,
					"Alpha": 1,
					"TexturePath": "Graphics//Textures//GUI//menu//gui_buttonCreditsStatic.dds",
					"SelectTexturePath": "Graphics//Textures//GUI//menu//gui_buttonCreditsHover.dds",
					"UnSelectTexturePath": "Graphics//Textures//GUI//menu//gui_buttonCreditsStatic.dds"
				},
				{
					"WidgetType": "Button",
					"Name": "QuitButton",
					"Events":
					{
						"OnMouseClick": "Quit",
						"OnMouseEnter": "",
						"OnMouseExit": ""
					},
					"Position":
					{
						"x": 0.82,
						"y": 0.1
					},
					"HitBox":
					{
						"Width": 0.5,
						"Height": 0.15
					},
					"Size": 0.5,
					"Alpha": 1,
					"TexturePath": "Graphics//Textures//GUI//menu//gui_buttonQuitStatic.dds",
					"SelectTexturePath": "Graphics//Textures//GUI//menu//gui_buttonQuitHover.dds",
					"UnSelectTexturePath": "Graphics//Textures//GUI//menu//gui_buttonQuitStatic.dds"
				}
			]
		}
    ]
}