{
    "GUIHolder": 
	[
		{
			"GUIHolderName": "PauseMenu",
			"GUIType": "Pause",
			"Widgets":
			[
				{
					"WidgetType": "Button",
					"Name": "Background",
					"Events":
					{
						"OnMouseClick": "",
						"OnMouseEnter": "",
						"OnMouseExit": ""
					},
					"Position":
					{
						"x": 1,
						"y": -1
					},
					"HitBox":
					{
						"Width": 0.5,
						"Height": 0.15
					},
					"Size": 2,
					"Alpha": 1,
					"TexturePath": "Graphics//Textures//GUI//pause//gui_menuPause.dds",
					"SelectTexturePath": "",
					"UnSelectTexturePath": ""
				},
				{
					"WidgetType": "Button",
					"Name": "ResumeButton",
					"Events":
					{
						"OnMouseClick": "Resume",
						"OnMouseEnter": "",
						"OnMouseExit": ""
					},
					"Position":
					{
						"x": 0.23,
						"y": -0.2
					},
					"HitBox":
					{
						"Width": 0.5,
						"Height": 0.15
					},
					"Size": 0.5,
					"Alpha": 1,
					"TexturePath": "Graphics//Textures//GUI//pause//gui_resume_static.dds",
					"SelectTexturePath": "Graphics//Textures//GUI//pause//gui_resume_hover.dds",
					"UnSelectTexturePath": "Graphics//Textures//GUI//pause//gui_resume_static.dds"
				},
				{
					"WidgetType": "Button",
					"Name": "Retrybutton",
					"Events":
					{
						"OnMouseClick": "Retry",
						"OnMouseEnter": "",
						"OnMouseExit": ""
					},
					"Position":
					{
						"x": 0.23,
						"y": 0
					},
					"HitBox":
					{
						"Width": 0.5,
						"Height": 0.15
					},
					"Size": 0.5,
					"Alpha": 1,
					"TexturePath": "Graphics//Textures//GUI//pause//gui_retry_static.dds",
					"SelectTexturePath": "Graphics//Textures//GUI//pause//gui_retry_hover.dds",
					"UnSelectTexturePath": "Graphics//Textures//GUI//pause//gui_retry_static.dds"
				},
				{
					"WidgetType": "Button",
					"Name": "QuitButton",
					"Events":
					{
						"OnMouseClick": "Quit",
						"OnMouseEnter": "",
						"OnMouseExit": ""
					},
					"Position":
					{
						"x": 0.23,
						"y": 0.2
					},
					"HitBox":
					{
						"Width": 0.5,
						"Height": 0.15
					},
					"Size": 0.5,
					"Alpha": 1,
					"TexturePath": "Graphics//Textures//GUI//pause//gui_quit_static.dds",
					"SelectTexturePath": "Graphics//Textures//GUI//pause//gui_quit_hover.dds",
					"UnSelectTexturePath": "Graphics//Textures//GUI//pause//gui_quit_static.dds"
				}
			]
		}
    ]
}